{
  "images" : [
    {
      "idiom" : "universal",
      "filename" : "10411159_10152418022196396_4792945429986577247_n.jpg",
      "scale" : "1x"
    },
    {
      "idiom" : "universal",
      "scale" : "2x"
    },
    {
      "idiom" : "universal",
      "scale" : "3x"
    }
  ],
  "info" : {
    "version" : 1,
    "author" : "xcode"
  }
}